…
<img src="fig_From MiLB to MLB Debut - a Machine Learning Application/figures/README-unnamed-chunk-20-1.png" width="100%" />

``` r

df_mlb %>% 
  mutate(ops_group = ifelse(ops <0.5, "500-", ifelse(ops>=0.5 & ops <0.6, "500-600", ifelse(ops>=0.6 & ops <0.7, "600-700", ifelse(ops>=0.7 & ops <0.8, "700-800", ifelse(ops>=0.8 & ops <0.9, "800-900", "900+")))))) %>% 
  group_by(ops_group, position, mlb_debut) %>%
  summarise(n = n(), .groups = "drop") %>%
  group_by(ops_group, position) %>%
  mutate(ops_pos_prop = n / sum(n)) %>% 
  filter(mlb_debut == 'yes')
#> # A tibble: 35 × 5
#> # Groups:   ops_group, position [35]
#>    ops_group position mlb_debut     n ops_pos_prop
#>    <chr>     <fct>    <fct>     <int>        <dbl>
#>  1 500-600   C        yes           1      0.00730
#>  2 600-700   2B       yes           6      0.0353 
#>  3 600-700   3B       yes           5      0.0352 
#>  4 600-700   C        yes          36      0.129  
#>  5 600-700   CF       yes           2      0.0667 
#>  6 600-700   IF       yes           2      0.0312 
#>  7 600-700   LF       yes           2      0.0392 
#>  8 600-700   OF       yes          13      0.0309 
#>  9 600-700   SS       yes          14      0.0765 
#> 10 700-800   1B       yes          22      0.103  
#> # … with 25 more rows
```
…
<img src="fig_From MiLB to MLB Debut - a Machine Learning Application/figures/README-unnamed-chunk-21-1.png" width="100%" />

``` r

df_mlb %>% 
  mutate(ops_group = ifelse(ops <0.5, "500-", ifelse(ops>=0.5 & ops <0.6, "500-600", ifelse(ops>=0.6 & ops <0.7, "600-700", ifelse(ops>=0.7 & ops <0.8, "700-800", ifelse(ops>=0.8 & ops <0.9, "800-900", "900+")))))) %>% 
  group_by(ops_group, position, mlb_debut) %>%
  summarise(n = n(), .groups = "drop") %>%
  group_by(ops_group, position) %>%
  mutate(ops_pos_prop = n / sum(n)) %>% 
  filter(mlb_debut == 'yes')
#> # A tibble: 35 × 5
#> # Groups:   ops_group, position [35]
#>    ops_group position mlb_debut     n ops_pos_prop
#>    <chr>     <fct>    <fct>     <int>        <dbl>
#>  1 500-600   C        yes           1      0.00730
#>  2 600-700   2B       yes           6      0.0353 
#>  3 600-700   3B       yes           5      0.0352 
#>  4 600-700   C        yes          36      0.129  
#>  5 600-700   CF       yes           2      0.0667 
#>  6 600-700   IF       yes           2      0.0312 
#>  7 600-700   LF       yes           2      0.0392 
#>  8 600-700   OF       yes          13      0.0309 
#>  9 600-700   SS       yes          14      0.0765 
#> 10 700-800   1B       yes          22      0.103  
#> # … with 25 more rows
```
…
<img src="fig_From MiLB to MLB Debut - a Machine Learning Application/figures/README-unnamed-chunk-24-1.png" width="100%" />

``` r

df_mlb %>% 
  group_by(sch_reg, mlb_debut) %>%
  summarise(n = n(), .groups = "drop") %>%
  group_by(sch_reg) %>%
  mutate(state_prop = n / sum(n)) %>% 
  filter(mlb_debut == 'yes') %>% 
  arrange(desc(state_prop))
#> # A tibble: 44 × 4
#> # Groups:   sch_reg [44]
#>    sch_reg mlb_debut     n state_prop
#>    <fct>   <fct>     <int>      <dbl>
#>  1 NE      yes           8      0.267
#>  2 AZ      yes          34      0.266
#>  3 NV      yes          12      0.24 
#>  4 LA      yes          30      0.227
#>  5 MS      yes          18      0.207
#>  6 BC      yes           3      0.2  
#>  7 GA      yes          34      0.2  
#>  8 ON      yes           3      0.2  
#>  9 SC      yes          24      0.2  
#> 10 OK      yes          25      0.197
#> # … with 34 more rows
```
…
<img src="fig_From MiLB to MLB Debut - a Machine Learning Application/figures/README-unnamed-chunk-25-1.png" width="100%" />

``` r

df_mlb %>% 
  group_by(birth_place, mlb_debut) %>%
  summarise(n = n(), .groups = "drop") %>%
  group_by(birth_place) %>%
  mutate(bir_prop = n / sum(n)) %>% 
  filter(mlb_debut == 'yes') %>% 
  arrange(desc(bir_prop))
#> # A tibble: 62 × 4
#> # Groups:   birth_place [62]
#>    birth_place mlb_debut     n bir_prop
#>    <fct>       <fct>     <int>    <dbl>
#>  1 NL          yes           1    1    
#>  2 VT          yes           2    0.667
#>  3 BR          yes           1    0.5  
#>  4 GE          yes           1    0.5  
#>  5 SR          yes           1    0.5  
#>  6 VG          yes           2    0.4  
#>  7 WY          yes           1    0.333
#>  8 NH          yes           2    0.286
#>  9 CT          yes           7    0.269
#> 10 OR          yes          10    0.263
#> # … with 52 more rows
```
…
``` r
# Set up possible values for these hyperparameters to try
ranfor_grid <- grid_regular(
  min_n(),
  finalize(mtry(), df_train_ranfor),
  levels = 5)

ranfor_grid
#> # A tibble: 25 × 2
#>    min_n  mtry
#>    <int> <int>
#>  1     2     1
#>  2    11     1
#>  3    21     1
#>  4    30     1
#>  5    40     1
#>  6     2    56
#>  7    11    56
#>  8    21    56
#>  9    30    56
#> 10    40    56
#> # … with 15 more rows
```
…
``` r
# Set up possible values for these hyperparameters to try
dt_grid <- grid_regular(
  tree_depth(),
  min_n(),
  levels = 5)

dt_grid
#> # A tibble: 25 × 2
#>    tree_depth min_n
#>         <int> <int>
#>  1          1     2
#>  2          4     2
#>  3          8     2
#>  4         11     2
#>  5         15     2
#>  6          1    11
#>  7          4    11
#>  8          8    11
#>  9         11    11
#> 10         15    11
#> # … with 15 more rows
```
…
``` r
# Set up possible values for these hyperparameters to try
svm_grid <-grid_regular(
  cost(),
  rbf_sigma(),
  levels = 5)

svm_grid
#> # A tibble: 25 × 2
#>         cost    rbf_sigma
#>        <dbl>        <dbl>
#>  1  0.000977 0.0000000001
#>  2  0.0131   0.0000000001
#>  3  0.177    0.0000000001
#>  4  2.38     0.0000000001
#>  5 32        0.0000000001
#>  6  0.000977 0.0000000316
#>  7  0.0131   0.0000000316
#>  8  0.177    0.0000000316
#>  9  2.38     0.0000000316
#> 10 32        0.0000000316
#> # … with 15 more rows
```
…
